{"data":[{"id":"5441d590-4d43-11ee-a602-d95b1bfc2e6d","user_id":"afc379f0-79ee-11eb-a306-21913834edef","title":"Outbreak","artist":"RG+Ice","jacket_filename":"jacket.png","description":null,"download_link":null,"downloads":9,"has_preview":1,"hidden":0,"mojibake":0,"uploaded_at":"2023-09-07 05:56:46","created_at":"2023-09-07 05:56:46","updated_at":"2023-09-07 15:05:04","jacket_url":"https:\/\/near.sfo2.cdn.digitaloceanspaces.com\/ksm.dev\/songs\/5441d590-4d43-11ee-a602-d95b1bfc2e6d\/jacket.png","preview_url":"https:\/\/near.sfo2.cdn.digitaloceanspaces.com\/ksm.dev\/songs\/5441d590-4d43-11ee-a602-d95b1bfc2e6d\/preview.mp3","cdn_download_url":"https:\/\/near.sfo2.cdn.digitaloceanspaces.com\/ksm.dev\/songs\/5441d590-4d43-11ee-a602-d95b1bfc2e6d\/Outbreak - RG+Ice.zip","user":{"id":"afc379f0-79ee-11eb-a306-21913834edef","name":"Ixiot","urlRoute":"\/users\/afc379f0-79ee-11eb-a306-21913834edef","twitter":null,"youtube":null,"bio":null,"created_at":"2021-02-28T17:59:22.000000Z","songCount":5},"charts":[{"id":"5442ddd0-4d43-11ee-a50a-2b4609cc948c","user_id":"afc379f0-79ee-11eb-a306-21913834edef","song_id":"5441d590-4d43-11ee-a602-d95b1bfc2e6d","difficulty":4,"level":18,"effector":"Ixiot","video_link":"https:\/\/youtu.be\/YSmOOWmdo3Y","created_at":"2023-09-07 05:56:46","updated_at":"2023-09-07 05:56:46"},{"id":"54447f40-4d43-11ee-ad5c-990d8cea6c63","user_id":"afc379f0-79ee-11eb-a306-21913834edef","song_id":"5441d590-4d43-11ee-a602-d95b1bfc2e6d","difficulty":3,"level":16,"effector":"Ixiot","video_link":"https:\/\/youtu.be\/-oqMzBwtbmU","created_at":"2023-09-07 05:56:46","updated_at":"2023-09-07 05:56:46"},{"id":"54451200-4d43-11ee-8137-e7ea63c29437","user_id":"afc379f0-79ee-11eb-a306-21913834edef","song_id":"5441d590-4d43-11ee-a602-d95b1bfc2e6d","difficulty":2,"level":12,"effector":"Ixiot","video_link":null,"created_at":"2023-09-07 05:56:46","updated_at":"2023-09-07 05:56:46"},{"id":"544592e0-4d43-11ee-8976-99b3c9529cf5","user_id":"afc379f0-79ee-11eb-a306-21913834edef","song_id":"5441d590-4d43-11ee-a602-d95b1bfc2e6d","difficulty":1,"level":5,"effector":"Ixiot","video_link":null,"created_at":"2023-09-07 05:56:46","updated_at":"2023-09-07 05:56:46"}],"tags":[{"id":"544662e0-4d43-11ee-a14d-a519963fe9dd","song_id":"5441d590-4d43-11ee-a602-d95b1bfc2e6d","value":"DanceDanceRevolution XX","created_at":"2023-09-07 05:56:46","updated_at":"2023-09-07 05:56:46"},{"id":"544709c0-4d43-11ee-b3d5-7bf3b74fb21a","song_id":"5441d590-4d43-11ee-a602-d95b1bfc2e6d","value":"Midflight Digital Records","created_at":"2023-09-07 05:56:46","updated_at":"2023-09-07 05:56:46"},{"id":"54479600-4d43-11ee-98ac-8d1892fb129a","song_id":"5441d590-4d43-11ee-a602-d95b1bfc2e6d","value":"Outbreak Kid","created_at":"2023-09-07 05:56:46","updated_at":"2023-09-07 05:56:46"}]},{"id":"d911c500-4c00-11ee-bf8e-cf7bf090b84c","user_id":"6584bf30-4be4-11ee-ae60-c111c2f70c7a","title":"Leviathan","artist":"AZALI","jacket_filename":"jacket.jpg","description":null,"download_link":null,"downloads":14,"has_preview":1,"hidden":0,"mojibake":0,"uploaded_at":"2023-09-06 14:54:23","created_at":"2023-09-05 15:28:22","updated_at":"2023-09-07 14:52:10","jacket_url":"https:\/\/near.sfo2.cdn.digitaloceanspaces.com\/ksm.dev\/songs\/d911c500-4c00-11ee-bf8e-cf7bf090b84c\/jacket.jpg","preview_url":"https:\/\/near.sfo2.cdn.digitaloceanspaces.com\/ksm.dev\/songs\/d911c500-4c00-11ee-bf8e-cf7bf090b84c\/preview.mp3","cdn_download_url":"https:\/\/near.sfo2.cdn.digitaloceanspaces.com\/ksm.dev\/songs\/d911c500-4c00-11ee-bf8e-cf7bf090b84c\/Leviathan - AZALI.zip","user":{"id":"6584bf30-4be4-11ee-ae60-c111c2f70c7a","name":"Ellie","urlRoute":"\/users\/ellie","twitter":"bldy_ellie","youtube":null,"bio":"they\/them","created_at":"2023-09-05T12:04:42.000000Z","songCount":1},"charts":[{"id":"44b21530-4cc5-11ee-9892-d16d8fc03c15","user_id":"6584bf30-4be4-11ee-ae60-c111c2f70c7a","song_id":"d911c500-4c00-11ee-bf8e-cf7bf090b84c","difficulty":2,"level":13,"effector":"bldy_ellie","video_link":null,"created_at":"2023-09-06 14:54:23","updated_at":"2023-09-06 14:54:23"}],"tags":[]},{"id":"8da74ba0-4bea-11ee-8f42-f99e264169be","user_id":"e962e700-f1da-11e9-9ef3-41415940ac63","title":"SUDDE\u0418 AP\u00d8CALYPSE RAY","artist":"xi","jacket_filename":"jacket.png","description":"DESTROY!!!","download_link":null,"downloads":24,"has_preview":1,"hidden":0,"mojibake":0,"uploaded_at":"2023-09-05 12:48:46","created_at":"2023-09-05 12:48:46","updated_at":"2023-09-07 10:04:15","jacket_url":"https:\/\/near.sfo2.cdn.digitaloceanspaces.com\/ksm.dev\/songs\/8da74ba0-4bea-11ee-8f42-f99e264169be\/jacket.png","preview_url":"https:\/\/near.sfo2.cdn.digitaloceanspaces.com\/ksm.dev\/songs\/8da74ba0-4bea-11ee-8f42-f99e264169be\/preview.mp3","cdn_download_url":"https:\/\/near.sfo2.cdn.digitaloceanspaces.com\/ksm.dev\/songs\/8da74ba0-4bea-11ee-8f42-f99e264169be\/SUDDE\u0418 AP\u00d8CALYPSE RAY - xi.zip","user":{"id":"e962e700-f1da-11e9-9ef3-41415940ac63","name":"MasterCelebi","urlRoute":"\/users\/MasterCelebi","twitter":"EarthSoviet","youtube":"https:\/\/www.youtube.com\/channel\/UC_jm4KuwktZqatVtwr07n6Q","bio":"I make chart very bad so I create mix instead XD","created_at":"2019-10-18T19:10:13.000000Z","songCount":44},"charts":[{"id":"8da80630-4bea-11ee-9377-2900490c5aac","user_id":"e962e700-f1da-11e9-9ef3-41415940ac63","song_id":"8da74ba0-4bea-11ee-8f42-f99e264169be","difficulty":4,"level":20,"effector":"Ether99 disrespect \u4e03\u8272METH\u00d8D","video_link":"https:\/\/youtu.be\/IKq8UN0neLI","created_at":"2023-09-05 12:48:46","updated_at":"2023-09-05 12:48:46"}],"tags":[{"id":"8da89ad0-4bea-11ee-b7a0-a141ad6f323c","song_id":"8da74ba0-4bea-11ee-8f42-f99e264169be","value":"AP\u00d8CALYPSE RAY","created_at":"2023-09-05 12:48:46","updated_at":"2023-09-05 12:48:46"}]},{"id":"5f4955e0-4b3f-11ee-84aa-7b4d250d10c5","user_id":"14adca40-30f1-11ec-ba08-eb0cd9513081","title":"\u30ef\u30f3\u30c0\u30d5\u30a9\u30fc\u30fb\u30d1\u30e9\u30c0\u30a4\u30b9","artist":"\u7fe1\u4e43\u30a4\u30b9\u30ab","jacket_filename":"jacket.jpg","description":null,"download_link":null,"downloads":18,"has_preview":1,"hidden":0,"mojibake":0,"uploaded_at":"2023-09-04 16:23:24","created_at":"2023-09-04 16:23:24","updated_at":"2023-09-07 15:59:19","jacket_url":"https:\/\/near.sfo2.cdn.digitaloceanspaces.com\/ksm.dev\/songs\/5f4955e0-4b3f-11ee-84aa-7b4d250d10c5\/jacket.jpg","preview_url":"https:\/\/near.sfo2.cdn.digitaloceanspaces.com\/ksm.dev\/songs\/5f4955e0-4b3f-11ee-84aa-7b4d250d10c5\/preview.mp3","cdn_download_url":"https:\/\/near.sfo2.cdn.digitaloceanspaces.com\/ksm.dev\/songs\/5f4955e0-4b3f-11ee-84aa-7b4d250d10c5\/\u30ef\u30f3\u30c0\u30d5\u30a9\u30fc\u30fb\u30d1\u30e9\u30c0\u30a4\u30b9 - \u7fe1\u4e43\u30a4\u30b9\u30ab.zip","user":{"id":"14adca40-30f1-11ec-ba08-eb0cd9513081","name":"RIR","urlRoute":"\/users\/14adca40-30f1-11ec-ba08-eb0cd9513081","twitter":"whelchengrax","youtube":null,"bio":"trash box","created_at":"2021-10-19T15:27:33.000000Z","songCount":16},"charts":[{"id":"5f4a3240-4b3f-11ee-86cd-cf64ab7ea510","user_id":"14adca40-30f1-11ec-ba08-eb0cd9513081","song_id":"5f4955e0-4b3f-11ee-84aa-7b4d250d10c5","difficulty":4,"level":18,"effector":"\u30b9\u30d1\u30a4\u30b9\u9999\u308b\u843d\u3068\u3057\u5375\u306e\u67d1\u6a58RIR","video_link":"https:\/\/youtu.be\/coxf5Mf1gpo","created_at":"2023-09-04 16:23:24","updated_at":"2023-09-04 16:23:24"}],"tags":[]},{"id":"6e523490-4a5d-11ee-8219-d5192f5b063f","user_id":"ccae85e0-dadc-11eb-9a4a-09a7625ca461","title":"\u521d\u97f3\u30df\u30af\u306e\u6fc0\u5531","artist":"cosMo@\u66b4\u8d70P","jacket_filename":"jacket.jpg","description":"its 3\/9","download_link":null,"downloads":61,"has_preview":1,"hidden":0,"mojibake":0,"uploaded_at":"2023-09-03 13:26:03","created_at":"2023-09-03 13:26:03","updated_at":"2023-09-07 15:02:42","jacket_url":"https:\/\/near.sfo2.cdn.digitaloceanspaces.com\/ksm.dev\/songs\/6e523490-4a5d-11ee-8219-d5192f5b063f\/jacket.jpg","preview_url":"https:\/\/near.sfo2.cdn.digitaloceanspaces.com\/ksm.dev\/songs\/6e523490-4a5d-11ee-8219-d5192f5b063f\/preview.mp3","cdn_download_url":"https:\/\/near.sfo2.cdn.digitaloceanspaces.com\/ksm.dev\/songs\/6e523490-4a5d-11ee-8219-d5192f5b063f\/\u521d\u97f3\u30df\u30af\u306e\u6fc0\u5531 - cosMo@\u66b4\u8d70P.zip","user":{"id":"ccae85e0-dadc-11eb-9a4a-09a7625ca461","name":"P3P","urlRoute":"\/users\/P3P","twitter":"TheDeeSP2078","youtube":"https:\/\/www.youtube.com\/channel\/UCICkTaMW62OqIy0EgLCmsSw","bio":"I make charts lol\ncharts starting Daisuke recorded by @vxnish on Discord\n\nAliases:\n> Nobuo Tsumami\n> \u30d4\u30c4\u30ea\u30d4","created_at":"2021-07-02T02:25:42.000000Z","songCount":75},"charts":[{"id":"6e5303f0-4a5d-11ee-9a11-495ba3d4f1bd","user_id":"ccae85e0-dadc-11eb-9a4a-09a7625ca461","song_id":"6e523490-4a5d-11ee-8219-d5192f5b063f","difficulty":4,"level":19,"effector":"P3P since20100709","video_link":"https:\/\/youtu.be\/bpmwNYnBG3k","created_at":"2023-09-03 13:26:03","updated_at":"2023-09-03 13:26:03"},{"id":"6e539440-4a5d-11ee-85bf-a3413d6a7489","user_id":"ccae85e0-dadc-11eb-9a4a-09a7625ca461","song_id":"6e523490-4a5d-11ee-8219-d5192f5b063f","difficulty":3,"level":17,"effector":"P3P since20100709","video_link":"https:\/\/youtu.be\/_GNS4vgp_AM","created_at":"2023-09-03 13:26:03","updated_at":"2023-09-03 13:26:03"},{"id":"6e5408d0-4a5d-11ee-961f-c75caa7576a5","user_id":"ccae85e0-dadc-11eb-9a4a-09a7625ca461","song_id":"6e523490-4a5d-11ee-8219-d5192f5b063f","difficulty":2,"level":14,"effector":"P3P since20100709","video_link":null,"created_at":"2023-09-03 13:26:03","updated_at":"2023-09-03 13:26:03"},{"id":"6e548830-4a5d-11ee-a373-4b5a5879fcd3","user_id":"ccae85e0-dadc-11eb-9a4a-09a7625ca461","song_id":"6e523490-4a5d-11ee-8219-d5192f5b063f","difficulty":1,"level":7,"effector":"P3P since20100709","video_link":null,"created_at":"2023-09-03 13:26:03","updated_at":"2023-09-03 13:26:03"}],"tags":[{"id":"efb55ad0-4a60-11ee-9cba-99e772f62ec7","song_id":"6e523490-4a5d-11ee-8219-d5192f5b063f","value":"cosmo@bousouP","created_at":"2023-09-03 13:51:09","updated_at":"2023-09-03 13:51:09"},{"id":"efb63ee0-4a60-11ee-8b34-3d4982ff7a1c","song_id":"6e523490-4a5d-11ee-8219-d5192f5b063f","value":"Taiko","created_at":"2023-09-03 13:51:09","updated_at":"2023-09-03 13:51:09"},{"id":"efb72530-4a60-11ee-9dee-bdbb2575c95a","song_id":"6e523490-4a5d-11ee-8219-d5192f5b063f","value":"Project DIVA","created_at":"2023-09-03 13:51:09","updated_at":"2023-09-03 13:51:09"},{"id":"efb80510-4a60-11ee-9520-33299a3fd46b","song_id":"6e523490-4a5d-11ee-8219-d5192f5b063f","value":"Hatsune Miku no Gekishou","created_at":"2023-09-03 13:51:09","updated_at":"2023-09-03 13:51:09"},{"id":"efb90c70-4a60-11ee-8bb6-e3b210a44e10","song_id":"6e523490-4a5d-11ee-8219-d5192f5b063f","value":"\u592a\u9f13\u306e\u9054\u4eba","created_at":"2023-09-03 13:51:09","updated_at":"2023-09-03 13:51:09"}]},{"id":"c8085d00-4a49-11ee-884b-8d174cefe6b4","user_id":"ef2dd4e0-cf08-11ed-8ab2-1769d7a73102","title":"RGB","artist":"MEMODEMO X AQUASINE","jacket_filename":"jacket.png","description":null,"download_link":null,"downloads":33,"has_preview":1,"hidden":0,"mojibake":0,"uploaded_at":"2023-09-03 11:05:24","created_at":"2023-09-03 11:05:24","updated_at":"2023-09-07 06:02:27","jacket_url":"https:\/\/near.sfo2.cdn.digitaloceanspaces.com\/ksm.dev\/songs\/c8085d00-4a49-11ee-884b-8d174cefe6b4\/jacket.png","preview_url":"https:\/\/near.sfo2.cdn.digitaloceanspaces.com\/ksm.dev\/songs\/c8085d00-4a49-11ee-884b-8d174cefe6b4\/preview.mp3","cdn_download_url":"https:\/\/near.sfo2.cdn.digitaloceanspaces.com\/ksm.dev\/songs\/c8085d00-4a49-11ee-884b-8d174cefe6b4\/RGB - MEMODEMO X AQUASINE.zip","user":{"id":"ef2dd4e0-cf08-11ed-8ab2-1769d7a73102","name":"ChuHoody","urlRoute":"\/users\/ef2dd4e0-cf08-11ed-8ab2-1769d7a73102","twitter":null,"youtube":null,"bio":null,"created_at":"2023-03-30T14:41:19.000000Z","songCount":7},"charts":[{"id":"c8090b70-4a49-11ee-8eae-a942ca7a2efe","user_id":"ef2dd4e0-cf08-11ed-8ab2-1769d7a73102","song_id":"c8085d00-4a49-11ee-884b-8d174cefe6b4","difficulty":4,"level":18,"effector":"CMYK (A-LT + blue7946 + byHoody)","video_link":"https:\/\/youtu.be\/TJj1dtwN_CY","created_at":"2023-09-03 11:05:24","updated_at":"2023-09-03 11:05:24"}],"tags":[]},{"id":"48d93210-49ab-11ee-85c9-dd4199466f2a","user_id":"1cb42a60-2c40-11ea-a6ac-35d84bd53c8b","title":"Raven\u2018s Pride","artist":"\u307f\u30fc\u306b feat. \u306f\u3089\u3082\u308a\u3088\u3057\u306a","jacket_filename":"jacket.jpg","description":"For others of my charts, please visit\r\nhttps:\/\/mega.nz\/#F!NoswmKAR!D5SkU44YIk99KBCMXFBdgQ","download_link":null,"downloads":37,"has_preview":1,"hidden":0,"mojibake":0,"uploaded_at":"2023-09-02 16:10:50","created_at":"2023-09-02 16:10:50","updated_at":"2023-09-07 08:03:11","jacket_url":"https:\/\/near.sfo2.cdn.digitaloceanspaces.com\/ksm.dev\/songs\/48d93210-49ab-11ee-85c9-dd4199466f2a\/jacket.jpg","preview_url":"https:\/\/near.sfo2.cdn.digitaloceanspaces.com\/ksm.dev\/songs\/48d93210-49ab-11ee-85c9-dd4199466f2a\/preview.mp3","cdn_download_url":"https:\/\/near.sfo2.cdn.digitaloceanspaces.com\/ksm.dev\/songs\/48d93210-49ab-11ee-85c9-dd4199466f2a\/Raven\u2018s Pride - \u307f\u30fc\u306b feat. \u306f\u3089\u3082\u308a\u3088\u3057\u306a.zip","user":{"id":"1cb42a60-2c40-11ea-a6ac-35d84bd53c8b","name":"ivwsbbsai","urlRoute":"\/users\/ivwsbbsai","twitter":null,"youtube":null,"bio":null,"created_at":"2020-01-01T02:40:45.000000Z","songCount":167},"charts":[{"id":"48daa540-49ab-11ee-a3b6-07e16438febe","user_id":"1cb42a60-2c40-11ea-a6ac-35d84bd53c8b","song_id":"48d93210-49ab-11ee-85c9-dd4199466f2a","difficulty":4,"level":18,"effector":"ivwsbbsai","video_link":null,"created_at":"2023-09-02 16:10:50","updated_at":"2023-09-02 16:10:50"}],"tags":[]},{"id":"831f7380-4900-11ee-a7c9-eff9eca85e82","user_id":"68be6c10-7087-11eb-bf30-1f1592d1d6dd","title":"\u30bd\u30f3\u30b0\u30aa\u30d6\u30b6\u30c7\u30c3\u30c9","artist":"KANA-BOON","jacket_filename":"jacket.jpg","description":null,"download_link":null,"downloads":27,"has_preview":1,"hidden":0,"mojibake":0,"uploaded_at":"2023-09-01 19:48:24","created_at":"2023-09-01 19:48:24","updated_at":"2023-09-06 01:46:37","jacket_url":"https:\/\/near.sfo2.cdn.digitaloceanspaces.com\/ksm.dev\/songs\/831f7380-4900-11ee-a7c9-eff9eca85e82\/jacket.jpg","preview_url":"https:\/\/near.sfo2.cdn.digitaloceanspaces.com\/ksm.dev\/songs\/831f7380-4900-11ee-a7c9-eff9eca85e82\/preview.mp3","cdn_download_url":"https:\/\/near.sfo2.cdn.digitaloceanspaces.com\/ksm.dev\/songs\/831f7380-4900-11ee-a7c9-eff9eca85e82\/\u30bd\u30f3\u30b0\u30aa\u30d6\u30b6\u30c7\u30c3\u30c9 - KANA-BOON.zip","user":{"id":"68be6c10-7087-11eb-bf30-1f1592d1d6dd","name":"MANA","urlRoute":"\/users\/68be6c10-7087-11eb-bf30-1f1592d1d6dd","twitter":null,"youtube":"https:\/\/www.youtube.com\/channel\/UCD3dvdGZri_fTj0T6h74qZg","bio":null,"created_at":"2021-02-16T18:47:24.000000Z","songCount":107},"charts":[{"id":"83218670-4900-11ee-a647-739fdfaf0dfc","user_id":"68be6c10-7087-11eb-bf30-1f1592d1d6dd","song_id":"831f7380-4900-11ee-a7c9-eff9eca85e82","difficulty":4,"level":17,"effector":"MANA","video_link":"https:\/\/youtu.be\/RUGle0fzwoE","created_at":"2023-09-01 19:48:24","updated_at":"2023-09-01 19:48:24"}],"tags":[]},{"id":"fd35def0-48dd-11ee-852d-c9e654ca88a3","user_id":"c93c7430-8c4f-11ec-919d-4b8a22308d7e","title":"\u3046\u305f\u304b\u305f\u306e\u305b\u304b\u3044\u3067","artist":"DJ Raisei vs. Setca. feat.nayuta","jacket_filename":"jacket.png","description":"Recommended to play in KSM (not in USC) for better experience of user-definition effects.","download_link":null,"downloads":44,"has_preview":1,"hidden":0,"mojibake":0,"uploaded_at":"2023-09-01 15:41:16","created_at":"2023-09-01 15:41:16","updated_at":"2023-09-06 02:49:30","jacket_url":"https:\/\/near.sfo2.cdn.digitaloceanspaces.com\/ksm.dev\/songs\/fd35def0-48dd-11ee-852d-c9e654ca88a3\/jacket.png","preview_url":"https:\/\/near.sfo2.cdn.digitaloceanspaces.com\/ksm.dev\/songs\/fd35def0-48dd-11ee-852d-c9e654ca88a3\/preview.mp3","cdn_download_url":"https:\/\/near.sfo2.cdn.digitaloceanspaces.com\/ksm.dev\/songs\/fd35def0-48dd-11ee-852d-c9e654ca88a3\/\u3046\u305f\u304b\u305f\u306e\u305b\u304b\u3044\u3067 - DJ Raisei vs. Setca. feat.nayuta.zip","user":{"id":"c93c7430-8c4f-11ec-919d-4b8a22308d7e","name":"metatron","urlRoute":"\/users\/c93c7430-8c4f-11ec-919d-4b8a22308d7e","twitter":"metatronotes","youtube":"https:\/\/www.youtube.com\/@metatronium","bio":null,"created_at":"2022-02-12T22:04:44.000000Z","songCount":19},"charts":[{"id":"fd36d6e0-48dd-11ee-99fc-73f4af14d28a","user_id":"c93c7430-8c4f-11ec-919d-4b8a22308d7e","song_id":"fd35def0-48dd-11ee-852d-c9e654ca88a3","difficulty":4,"level":20,"effector":"metatron","video_link":"https:\/\/youtu.be\/rQlUp2yfhGc?si=vYJnqCnRjRArB1wB","created_at":"2023-09-01 15:41:16","updated_at":"2023-09-01 15:41:16"}],"tags":[{"id":"fd37b0c0-48dd-11ee-a554-27ac926ce005","song_id":"fd35def0-48dd-11ee-852d-c9e654ca88a3","value":"chunithm","created_at":"2023-09-01 15:41:16","updated_at":"2023-09-01 15:41:16"}]},{"id":"20c3a420-487d-11ee-aaef-0904f65bfcc8","user_id":"756992e0-f751-11ed-85ea-ddfd6cebcfc7","title":"Green Green Dance","artist":"Mutsuhiko Izumi","jacket_filename":"jacket.jpg","description":null,"download_link":null,"downloads":23,"has_preview":1,"hidden":0,"mojibake":0,"uploaded_at":"2023-09-01 04:07:55","created_at":"2023-09-01 04:07:55","updated_at":"2023-09-06 01:46:38","jacket_url":"https:\/\/near.sfo2.cdn.digitaloceanspaces.com\/ksm.dev\/songs\/20c3a420-487d-11ee-aaef-0904f65bfcc8\/jacket.jpg","preview_url":"https:\/\/near.sfo2.cdn.digitaloceanspaces.com\/ksm.dev\/songs\/20c3a420-487d-11ee-aaef-0904f65bfcc8\/preview.mp3","cdn_download_url":"https:\/\/near.sfo2.cdn.digitaloceanspaces.com\/ksm.dev\/songs\/20c3a420-487d-11ee-aaef-0904f65bfcc8\/Green Green Dance - Mutsuhiko Izumi.zip","user":{"id":"756992e0-f751-11ed-85ea-ddfd6cebcfc7","name":"Noooooong","urlRoute":"\/users\/756992e0-f751-11ed-85ea-ddfd6cebcfc7","twitter":null,"youtube":null,"bio":null,"created_at":"2023-05-20T21:01:15.000000Z","songCount":4},"charts":[{"id":"20c75740-487d-11ee-8ec3-9b9f2ce1df22","user_id":"756992e0-f751-11ed-85ea-ddfd6cebcfc7","song_id":"20c3a420-487d-11ee-aaef-0904f65bfcc8","difficulty":3,"level":18,"effector":"Noooooong","video_link":"https:\/\/www.youtube.com\/watch?v=ijR-Ttz6Ap0","created_at":"2023-09-01 04:07:55","updated_at":"2023-09-01 04:07:55"}],"tags":[{"id":"20c88780-487d-11ee-a748-cf5a65bca95f","song_id":"20c3a420-487d-11ee-aaef-0904f65bfcc8","value":"GreenGreenDance","created_at":"2023-09-01 04:07:55","updated_at":"2023-09-01 04:07:55"},{"id":"20ca1340-487d-11ee-a1e9-0177983c4721","song_id":"20c3a420-487d-11ee-aaef-0904f65bfcc8","value":"Mutsuhiko Izumi","created_at":"2023-09-01 04:07:55","updated_at":"2023-09-01 04:07:55"},{"id":"20cb8e60-487d-11ee-9085-4beae4df2e34","song_id":"20c3a420-487d-11ee-aaef-0904f65bfcc8","value":"Noooooong","created_at":"2023-09-01 04:07:55","updated_at":"2023-09-01 04:07:55"}]}],"links":{"first":"https:\/\/ksm.dev\/app\/songs?sort=uploaded&page=1","last":"https:\/\/ksm.dev\/app\/songs?sort=uploaded&page=533","prev":null,"next":"https:\/\/ksm.dev\/app\/songs?sort=uploaded&page=2"},"meta":{"current_page":1,"from":1,"last_page":533,"path":"https:\/\/ksm.dev\/app\/songs","per_page":10,"to":10,"total":5321}}